%YAML 1.1
%TAG !u! tag:unity3d.com,2011:
--- !u!21 &2100000
Material:
  serializedVersion: 6
  m_ObjectHideFlags: 0
  m_PrefabParentObject: {fileID: 0}
  m_PrefabInternal: {fileID: 0}
  m_Name: MarchingCubeFromVoxelData
  m_Shader: {fileID: 4800000, guid: c96ecb666dadec848961a9c656f7e7a6, type: 3}
  m_ShaderKeywords: 
  m_LightmapFlags: 4
  m_EnableInstancingVariants: 0
  m_DoubleSidedGI: 0
  m_CustomRenderQueue: -1
  stringTagMap: {}
  disabledShaderPasses: []
  m_SavedProperties:
    serializedVersion: 3
    m_TexEnvs:
    - _BackDepth:
        m_Texture: {fileID: 8400000, guid: 8bd97e22695bc22499f3b6c36917c2ab, type: 2}
        m_Scale: {x: 1, y: 1}
        m_Offset: {x: 0, y: 0}
    - _BackTex:
        m_Texture: {fileID: 8400000, guid: 6769b3076629d1846acc267db2ec63eb, type: 2}
        m_Scale: {x: 1, y: 1}
        m_Offset: {x: 0, y: 0}
    - _BottomDepth:
        m_Texture: {fileID: 8400000, guid: dc1e0295f5b5f70478df02d6b50e0677, type: 2}
        m_Scale: {x: 1, y: 1}
        m_Offset: {x: 0, y: 0}
    - _BottomTex:
        m_Texture: {fileID: 8400000, guid: 935ad71b208de3441abaa8f88315619d, type: 2}
        m_Scale: {x: 1, y: 1}
        m_Offset: {x: 0, y: 0}
    - _BumpMap:
        m_Texture: {fileID: 0}
        m_Scale: {x: 1, y: 1}
        m_Offset: {x: 0, y: 0}
    - _BumpTex:
        m_Texture: {fileID: 0}
        m_Scale: {x: 1, y: 1}
        m_Offset: {x: 0, y: 0}
    - _CustomRenderTexture:
        m_Texture: {fileID: 8600000, guid: c6baf7b7d34f18c47b304e7964742661, type: 2}
        m_Scale: {x: 1, y: 1}
        m_Offset: {x: 0, y: 0}
    - _DetailAlbedoMap:
        m_Texture: {fileID: 0}
        m_Scale: {x: 1, y: 1}
        m_Offset: {x: 0, y: 0}
    - _DetailMask:
        m_Texture: {fileID: 0}
        m_Scale: {x: 1, y: 1}
        m_Offset: {x: 0, y: 0}
    - _DetailNormalMap:
        m_Texture: {fileID: 0}
        m_Scale: {x: 1, y: 1}
        m_Offset: {x: 0, y: 0}
    - _EmissionMap:
        m_Texture: {fileID: 0}
        m_Scale: {x: 1, y: 1}
        m_Offset: {x: 0, y: 0}
    - _FrontDepth:
        m_Texture: {fileID: 8400000, guid: a44819534ff507c41b76e4da101910c2, type: 2}
        m_Scale: {x: 1, y: 1}
        m_Offset: {x: 0, y: 0}
    - _FrontTex:
        m_Texture: {fileID: 8400000, guid: 66d5ced1f5834e1488c4bae29e5b557f, type: 2}
        m_Scale: {x: 1, y: 1}
        m_Offset: {x: 0, y: 0}
    - _LeftDepth:
        m_Texture: {fileID: 8400000, guid: 4fa9e8091217bd94ea4afd383eb5b906, type: 2}
        m_Scale: {x: 1, y: 1}
        m_Offset: {x: 0, y: 0}
    - _LeftTex:
        m_Texture: {fileID: 8400000, guid: 2d8f40ce1346fd74b9f09890d0251e88, type: 2}
        m_Scale: {x: 1, y: 1}
        m_Offset: {x: 0, y: 0}
    - _MainTex:
        m_Texture: {fileID: 0}
        m_Scale: {x: 1, y: 1}
        m_Offset: {x: 0, y: 0}
    - _MarchingCubeTex:
        m_Texture: {fileID: 2800000, guid: 6996d1a80f87b414188fcdfdbb654b12, type: 3}
        m_Scale: {x: 1, y: 1}
        m_Offset: {x: 0, y: 0}
    - _MetallicGlossMap:
        m_Texture: {fileID: 0}
        m_Scale: {x: 1, y: 1}
        m_Offset: {x: 0, y: 0}
    - _OcclusionMap:
        m_Texture: {fileID: 0}
        m_Scale: {x: 1, y: 1}
        m_Offset: {x: 0, y: 0}
    - _ParallaxMap:
        m_Texture: {fileID: 0}
        m_Scale: {x: 1, y: 1}
        m_Offset: {x: 0, y: 0}
    - _PetrifyMask:
        m_Texture: {fileID: 2800000, guid: d2c4e1ad60cddc441b35f2e00930a5ac, type: 3}
        m_Scale: {x: 1, y: 1}
        m_Offset: {x: 0, y: 0}
    - _RightDepth:
        m_Texture: {fileID: 8400000, guid: f1ed0deb04a0f764c9db66b9b21ad0cd, type: 2}
        m_Scale: {x: 1, y: 1}
        m_Offset: {x: 0, y: 0}
    - _RightTex:
        m_Texture: {fileID: 8400000, guid: bce4145d02c5d614ba234ad3b7177eea, type: 2}
        m_Scale: {x: 1, y: 1}
        m_Offset: {x: 0, y: 0}
    - _StoneBumpTex:
        m_Texture: {fileID: 2800000, guid: b918457e0ab23bf488a5c2fdae0b97b8, type: 3}
        m_Scale: {x: 1, y: 1}
        m_Offset: {x: 0, y: 0}
    - _StoneTex:
        m_Texture: {fileID: 2800000, guid: e9a6f4ed41f8c6342a4deabb2355f44a, type: 3}
        m_Scale: {x: 1, y: 1}
        m_Offset: {x: 0, y: 0}
    - _TopDepth:
        m_Texture: {fileID: 8400000, guid: 273afd57158918d4bacdc894064caca6, type: 2}
        m_Scale: {x: 1, y: 1}
        m_Offset: {x: 0, y: 0}
    - _TopTex:
        m_Texture: {fileID: 8400000, guid: de7f9c0a0ea99154894b4b0c75fcec7f, type: 2}
        m_Scale: {x: 1, y: 1}
        m_Offset: {x: 0, y: 0}
    m_Floats:
    - _BoundaryBlurAmount: 25
    - _BumpScale: 1
    - _Cutoff: 0.5
    - _Depth: 128
    - _DetailNormalMapScale: 1
    - _DstBlend: 0
    - _EmissionIntensity: 1
    - _GlossMapScale: 1
    - _Glossiness: 0.5
    - _GlossyReflections: 1
    - _Height: 128
    - _IsDisplaySurface: 0
    - _Metallic: 0.657
    - _Mode: 0
    - _OcclusionStrength: 1
    - _Parallax: 0.02
    - _PetrifyAvailable: 0
    - _PetrifyProgress: 0
    - _PetrifyRate: 0.2
    - _SampleScale: 1
    - _Scale: 0.03125
    - _SegmentNum: 64
    - _SmoothnessTextureChannel: 0
    - _SpecularHighlights: 1
    - _SpecularPower: 32
    - _SplitNum: 1
    - _SrcBlend: 1
    - _Threashold: 0.5
    - _UVSec: 0
    - _Width: 128
    - _ZWrite: 1
    m_Colors:
    - _Color: {r: 1, g: 1, b: 1, a: 1}
    - _DiffuseColor: {r: 0, g: 1, b: 0.50344825, a: 1}
    - _EmissionColor: {r: 0, g: 0, b: 0, a: 1}
    - _SpecularColor: {r: 0.19117647, g: 0.16843307, b: 0.09418253, a: 1}
