# Exported from ProBuilder
# http://www.procore3d.com/probuilder
# 2/9/2019 4:26:56 PM

mtllib ./Floor_Wall.mtl
o Floor_Wall

g Floor_Wall
v 3 0 52.5
v 1.951122 0 52.5
v 3 4.979699 52.5
v 1.951122 4.979699 52.5
v 1.951122 0 52.5
v 1.951122 0 35.5
v 1.951122 4.979699 52.5
v 1.951122 4.979699 35.5
v 1.951122 0 35.5
v 3 0 35.5
v 1.951122 4.979699 35.5
v 3 4.979699 35.5
v 3 0 35.5
v 3 0 52.5
v 3 4.979699 35.5
v 3 4.979699 52.5
v 3 4.979699 52.5
v 1.951122 4.979699 52.5
v 3 4.979699 35.5
v 1.951122 4.979699 35.5
v 3 0 35.5
v 1.951122 0 35.5
v 3 0 52.5
v 1.951122 0 52.5
v 16 -1 53
v 2 -1 53
v 16 5 53
v 2 5 53
v 2 -1 53
v 2 -1 52
v 2 5 53
v 2 5 52
v 2 -1 52
v 16 -1 52
v 2 5 52
v 16 5 52
v 16 -1 52
v 16 -1 53
v 16 5 52
v 16 5 53
v 16 5 53
v 2 5 53
v 16 5 52
v 2 5 52
v 16 -1 52
v 2 -1 52
v 16 -1 53
v 2 -1 53
v 15.99998 0 52
v 14.99998 0 52
v 15.99998 4 52
v 14.99998 4 52
v 14.99998 0 52
v 14.99998 0 36
v 14.99998 4 52
v 14.99998 4 36
v 14.99998 0 36
v 15.99998 0 36
v 14.99998 4 36
v 15.99998 4 36
v 15.99998 0 36
v 15.99998 0 52
v 15.99998 4 36
v 15.99998 4 52
v 15.99998 4 52
v 14.99998 4 52
v 15.99998 4 36
v 14.99998 4 36
v 15.99998 0 36
v 14.99998 0 36
v 15.99998 0 52
v 14.99998 0 52
v 12 -1 36
v 2 -1 36
v 12 4 36
v 2 4 36
v 2 -1 36
v 2 -1 35
v 2 4 36
v 2 4 35
v 2 -1 35
v 12 -1 35
v 2 4 35
v 12 4 35
v 12 -1 35
v 12 -1 36
v 12 4 35
v 12 4 36
v 12 4 36
v 2 4 36
v 12 4 35
v 2 4 35
v 12 -1 35
v 2 -1 35
v 12 -1 36
v 2 -1 36

vn 0 0 1
vn 0 0 1
vn 0 0 1
vn 0 0 1
vn -1 0 0
vn -1 0 0
vn -1 0 0
vn -1 0 0
vn 0 0 -1
vn 0 0 -1
vn 0 0 -1
vn 0 0 -1
vn 1 0 0
vn 1 0 0
vn 1 0 0
vn 1 0 0
vn 0 1 0
vn 0 1 0
vn 0 1 0
vn 0 1 0
vn 0 -1 0
vn 0 -1 0
vn 0 -1 0
vn 0 -1 0
vn 0 0 1
vn 0 0 1
vn 0 0 1
vn 0 0 1
vn -1 0 0
vn -1 0 0
vn -1 0 0
vn -1 0 0
vn 0 0 -1
vn 0 0 -1
vn 0 0 -1
vn 0 0 -1
vn 1 0 0
vn 1 0 0
vn 1 0 0
vn 1 0 0
vn 0 1 0
vn 0 1 0
vn 0 1 0
vn 0 1 0
vn 0 -1 0
vn 0 -1 0
vn 0 -1 0
vn 0 -1 0
vn 0 0 1
vn 0 0 1
vn 0 0 1
vn 0 0 1
vn -1 0 0
vn -1 0 0
vn -1 0 0
vn -1 0 0
vn 0 0 -1
vn 0 0 -1
vn 0 0 -1
vn 0 0 -1
vn 1 0 0
vn 1 0 0
vn 1 0 0
vn 1 0 0
vn 0 1 0
vn 0 1 0
vn 0 1 0
vn 0 1 0
vn 0 -1 0
vn 0 -1 0
vn 0 -1 0
vn 0 -1 0
vn 0 0 1
vn 0 0 1
vn 0 0 1
vn 0 0 1
vn -1 0 0
vn -1 0 0
vn -1 0 0
vn -1 0 0
vn 0 0 -1
vn 0 0 -1
vn 0 0 -1
vn 0 0 -1
vn 1 0 0
vn 1 0 0
vn 1 0 0
vn 1 0 0
vn 0 1 0
vn 0 1 0
vn 0 1 0
vn 0 1 0
vn 0 -1 0
vn 0 -1 0
vn 0 -1 0
vn 0 -1 0

vt -1 -2
vt -2.048878 -2
vt -1 2.979699
vt -2.048878 2.979699
vt 16.5 -2
vt -0.5 -2
vt 16.5 2.979699
vt -0.5 2.979699
vt 2.048878 -2
vt 1 -2
vt 2.048878 2.979699
vt 1 2.979699
vt 0.5 -2
vt -16.5 -2
vt 0.5 2.979699
vt -16.5 2.979699
vt 1 16.5
vt 2.048878 16.5
vt 1 -0.5
vt 2.048878 -0.5
vt -1 -0.5
vt -2.048878 -0.5
vt -1 16.5
vt -2.048878 16.5
vt 5 0
vt -9 0
vt 5 6
vt -9 6
vt 8 0
vt 7 0
vt 8 6
vt 7 6
vt 9 0
vt -5 0
vt 9 6
vt -5 6
vt -7 0
vt -8 0
vt -7 6
vt -8 6
vt -5 8
vt 9 8
vt -5 7
vt 9 7
vt 5 7
vt -9 7
vt 5 8
vt -9 8
vt -1 -2
vt -2 -2
vt -1 2
vt -2 2
vt 16 -2
vt 0 -2
vt 16 2
vt 0 2
vt 2 -2
vt 1 -2
vt 2 2
vt 1 2
vt 0 -2
vt -16 -2
vt 0 2
vt -16 2
vt 1 16
vt 2 16
vt 1 0
vt 2 0
vt -1 0
vt -2 0
vt -1 16
vt -2 16
vt 1 0
vt -9 0
vt 1 5
vt -9 5
vt 8 0
vt 7 0
vt 8 5
vt 7 5
vt 9 0
vt -1 0
vt 9 5
vt -1 5
vt -7 0
vt -8 0
vt -7 5
vt -8 5
vt -1 8
vt 9 8
vt -1 7
vt 9 7
vt 1 7
vt -9 7
vt 1 8
vt -9 8

g Floor_Wall
usemtl M06_WallBlack
f 3/3/3 4/4/4 2/2/2 1/1/1
f 7/7/7 8/8/8 6/6/6 5/5/5
f 11/11/11 12/12/12 10/10/10 9/9/9
f 15/15/15 16/16/16 14/14/14 13/13/13
f 19/19/19 20/20/20 18/18/18 17/17/17
f 23/23/23 24/24/24 22/22/22 21/21/21
f 27/27/27 28/28/28 26/26/26 25/25/25
f 31/31/31 32/32/32 30/30/30 29/29/29
f 35/35/35 36/36/36 34/34/34 33/33/33
f 39/39/39 40/40/40 38/38/38 37/37/37
f 43/43/43 44/44/44 42/42/42 41/41/41
f 47/47/47 48/48/48 46/46/46 45/45/45
f 51/51/51 52/52/52 50/50/50 49/49/49
f 55/55/55 56/56/56 54/54/54 53/53/53
f 59/59/59 60/60/60 58/58/58 57/57/57
f 63/63/63 64/64/64 62/62/62 61/61/61
f 67/67/67 68/68/68 66/66/66 65/65/65
f 71/71/71 72/72/72 70/70/70 69/69/69
f 75/75/75 76/76/76 74/74/74 73/73/73
f 79/79/79 80/80/80 78/78/78 77/77/77
f 83/83/83 84/84/84 82/82/82 81/81/81
f 87/87/87 88/88/88 86/86/86 85/85/85
f 91/91/91 92/92/92 90/90/90 89/89/89
f 95/95/95 96/96/96 94/94/94 93/93/93

